Chapter 7 Data transformation 1 | BigData with R
…
## ── Conflicts ──────────────────────────────────────────────────────────────────────────────────────────── tidyverse_conflicts() ──
## ✖ dplyr::filter() masks stats::filter()
## ✖ dplyr::lag()    masks stats::lag()

library("nycflights13")

7.3.2 Filter 사용하기

filter() 함수의 인수들은 “and”로 결합됩니다. 모든 표현식이 “참” 일때 출력됩니다.

flights

## # A tibble: 336,776 x 19
##     year month   day dep_time sched_dep_time dep_delay arr_time
##    <int> <int> <int>    <int>          <int>     <dbl>    <int>
##  1  2013     1     1      517            515         2      830
##  2  2013     1     1      533            529         4      850
##  3  2013     1     1      542            540         2      923
##  4  2013     1     1      544            545        -1     1004
##  5  2013     1     1      554            600        -6      812
##  6  2013     1     1      554            558        -4      740
##  7  2013     1     1      555            600        -5      913
##  8  2013     1     1      557            600        -3      709
##  9  2013     1     1      557            600        -3      838
## 10  2013     1     1      558            600        -2      753
## # … with 336,766 more rows, and 12 more variables: sched_arr_time <int>,
## #   arr_delay <dbl>, carrier <chr>, flight <int>, tailnum <chr>,
## #   origin <chr>, dest <chr>, air_time <dbl>, distance <dbl>, hour <dbl>,
## #   minute <dbl>, time_hour <dttm>

filter(flights, month == 2, day ==1)

## # A tibble: 926 x 19
##     year month   day dep_time sched_dep_time dep_delay arr_time
##    <int> <int> <int>    <int>          <int>     <dbl>    <int>
##  1  2013     2     1      456            500        -4      652
##  2  2013     2     1      520            525        -5      816
##  3  2013     2     1      527            530        -3      837
##  4  2013     2     1      532            540        -8     1007
##  5  2013     2     1      540            540         0      859
##  6  2013     2     1      552            600        -8      714
##  7  2013     2     1      552            600        -8      919
##  8  2013     2     1      552            600        -8      655
##  9  2013     2     1      553            600        -7      833
## 10  2013     2     1      553            600        -7      821
## # … with 916 more rows, and 12 more variables: sched_arr_time <int>,
## #   arr_delay <dbl>, carrier <chr>, flight <int>, tailnum <chr>,
## #   origin <chr>, dest <chr>, air_time <dbl>, distance <dbl>, hour <dbl>,
## #   minute <dbl>, time_hour <dttm>

jan3 <- filter(flights, month == 1, day == 3)
(dec22 <- filter(flights, month == 12, day == 22))

## # A tibble: 895 x 19
##     year month   day dep_time sched_dep_time dep_delay arr_time
##    <int> <int> <int>    <int>          <int>     <dbl>    <int>
##  1  2013    12    22        7           2359         8      438
##  2  2013    12    22       23           2245        98      124
##  3  2013    12    22       32           2359        33      513
##  4  2013    12    22      455            500        -5      645
##  5  2013    12    22      536            510        26      821
##  6  2013    12    22      538            540        -2      831
##  7  2013    12    22      549            550        -1     1027
##  8  2013    12    22      551            551         0      838
##  9  2013    12    22      552            600        -8      654
## 10  2013    12    22      555            600        -5      755
## # … with 885 more rows, and 12 more variables: sched_arr_time <int>,
## #   arr_delay <dbl>, carrier <chr>, flight <int>, tailnum <chr>,
## #   origin <chr>, dest <chr>, air_time <dbl>, distance <dbl>, hour <dbl>,
## #   minute <dbl>, time_hour <dttm>

7.3.3 Logical 연산자

– 11월 또는 12월에 출발한 항공편 모두 찾기

filter(flights, month == 11 | month == 12)

## # A tibble: 55,403 x 19
##     year month   day dep_time sched_dep_time dep_delay arr_time
##    <int> <int> <int>    <int>          <int>     <dbl>    <int>
##  1  2013    11     1        5           2359         6      352
##  2  2013    11     1       35           2250       105      123
##  3  2013    11     1      455            500        -5      641
##  4  2013    11     1      539            545        -6      856
##  5  2013    11     1      542            545        -3      831
##  6  2013    11     1      549            600       -11      912
##  7  2013    11     1      550            600       -10      705
##  8  2013    11     1      554            600        -6      659
##  9  2013    11     1      554            600        -6      826
## 10  2013    11     1      554            600        -6      749
## # … with 55,393 more rows, and 12 more variables: sched_arr_time <int>,
## #   arr_delay <dbl>, carrier <chr>, flight <int>, tailnum <chr>,
## #   origin <chr>, dest <chr>, air_time <dbl>, distance <dbl>, hour <dbl>,
## #   minute <dbl>, time_hour <dttm>

2시간 이상 도착이 지연된 항공사

filter(flights, arr_delay >= 120, dep_delay >= 120)

## # A tibble: 8,482 x 19
##     year month   day dep_time sched_dep_time dep_delay arr_time
##    <int> <int> <int>    <int>          <int>     <dbl>    <int>
##  1  2013     1     1      848           1835       853     1001
##  2  2013     1     1      957            733       144     1056
##  3  2013     1     1     1114            900       134     1447
##  4  2013     1     1     1815           1325       290     2120
##  5  2013     1     1     1842           1422       260     1958
##  6  2013     1     1     1856           1645       131     2212
##  7  2013     1     1     1934           1725       129     2126
##  8  2013     1     1     1938           1703       155     2109
##  9  2013     1     1     1942           1705       157     2124
## 10  2013     1     1     2006           1630       216     2230
## # … with 8,472 more rows, and 12 more variables: sched_arr_time <int>,
## #   arr_delay <dbl>, carrier <chr>, flight <int>, tailnum <chr>,
## #   origin <chr>, dest <chr>, air_time <dbl>, distance <dbl>, hour <dbl>,
## #   minute <dbl>, time_hour <dttm>

7.3.4 arrange 를 이용한 정렬

년/월/일 을 기준으로 flights 를 정렬 합니다.

arrange(flights, year, month, day)

## # A tibble: 336,776 x 19
##     year month   day dep_time sched_dep_time dep_delay arr_time
##    <int> <int> <int>    <int>          <int>     <dbl>    <int>
##  1  2013     1     1      517            515         2      830
##  2  2013     1     1      533            529         4      850
##  3  2013     1     1      542            540         2      923
##  4  2013     1     1      544            545        -1     1004
##  5  2013     1     1      554            600        -6      812
##  6  2013     1     1      554            558        -4      740
##  7  2013     1     1      555            600        -5      913
##  8  2013     1     1      557            600        -3      709
##  9  2013     1     1      557            600        -3      838
## 10  2013     1     1      558            600        -2      753
## # … with 336,766 more rows, and 12 more variables: sched_arr_time <int>,
## #   arr_delay <dbl>, carrier <chr>, flight <int>, tailnum <chr>,
## #   origin <chr>, dest <chr>, air_time <dbl>, distance <dbl>, hour <dbl>,
## #   minute <dbl>, time_hour <dttm>

desc() 함수를 이용하여 내림차순으로 정렬 합니다.

arrange(flights, desc(dep_delay))

## # A tibble: 336,776 x 19
##     year month   day dep_time sched_dep_time dep_delay arr_time
##    <int> <int> <int>    <int>          <int>     <dbl>    <int>
##  1  2013     1     9      641            900      1301     1242
##  2  2013     6    15     1432           1935      1137     1607
##  3  2013     1    10     1121           1635      1126     1239
##  4  2013     9    20     1139           1845      1014     1457
##  5  2013     7    22      845           1600      1005     1044
##  6  2013     4    10     1100           1900       960     1342
##  7  2013     3    17     2321            810       911      135
##  8  2013     6    27      959           1900       899     1236
##  9  2013     7    22     2257            759       898      121
## 10  2013    12     5      756           1700       896     1058
## # … with 336,766 more rows, and 12 more variables: sched_arr_time <int>,
## #   arr_delay <dbl>, carrier <chr>, flight <int>, tailnum <chr>,
## #   origin <chr>, dest <chr>, air_time <dbl>, distance <dbl>, hour <dbl>,
## #   minute <dbl>, time_hour <dttm>
…
## # A tibble: 3 x 1
##       x
##   <dbl>
## 1     5
## 2     2
## 3    NA

7.3.4.1 Exercise

dep_time 이 NA 인것부터 보여지도록 정렬

arrange(flights, desc(is.na(dep_time)), dep_time)

## # A tibble: 336,776 x 19
##     year month   day dep_time sched_dep_time dep_delay arr_time
##    <int> <int> <int>    <int>          <int>     <dbl>    <int>
##  1  2013     1     1       NA           1630        NA       NA
##  2  2013     1     1       NA           1935        NA       NA
##  3  2013     1     1       NA           1500        NA       NA
##  4  2013     1     1       NA            600        NA       NA
##  5  2013     1     2       NA           1540        NA       NA
##  6  2013     1     2       NA           1620        NA       NA
##  7  2013     1     2       NA           1355        NA       NA
##  8  2013     1     2       NA           1420        NA       NA
##  9  2013     1     2       NA           1321        NA       NA
## 10  2013     1     2       NA           1545        NA       NA
## # … with 336,766 more rows, and 12 more variables: sched_arr_time <int>,
## #   arr_delay <dbl>, carrier <chr>, flight <int>, tailnum <chr>,
## #   origin <chr>, dest <chr>, air_time <dbl>, distance <dbl>, hour <dbl>,
## #   minute <dbl>, time_hour <dttm>

가장빠른 비행기 순으로 정렬

fastest_flights <- mutate(flights, mph = distance / air_time * 60)

fastest_flights <- select(
  fastest_flights, mph, distance, air_time,
  flight, origin, dest, year, month, day
)

arrange(fastest_flights, desc(mph))

## # A tibble: 336,776 x 9
##      mph distance air_time flight origin dest   year month   day
##    <dbl>    <dbl>    <dbl>  <int> <chr>  <chr> <int> <int> <int>
##  1  703.      762       65   1499 LGA    ATL    2013     5    25
##  2  650.     1008       93   4667 EWR    MSP    2013     7     2
##  3  648       594       55   4292 EWR    GSP    2013     5    13
##  4  641.      748       70   3805 EWR    BNA    2013     3    23
##  5  591.     1035      105   1902 LGA    PBI    2013     1    12
##  6  564      1598      170    315 JFK    SJU    2013    11    17
##  7  557.     1598      172    707 JFK    SJU    2013     2    21
##  8  556.     1623      175    936 JFK    STT    2013    11    17
##  9  554.     1598      173    347 JFK    SJU    2013    11    16
## 10  554.     1598      173   1503 JFK    SJU    2013    11    16
## # … with 336,766 more rows

7.3.5 select 를 이용한 데이터 선택

7.3.5.1 컬럼 이름으로 열 선택

select(flights, year, month, day)

## # A tibble: 336,776 x 3
##     year month   day
##    <int> <int> <int>
##  1  2013     1     1
##  2  2013     1     1
##  3  2013     1     1
##  4  2013     1     1
##  5  2013     1     1
##  6  2013     1     1
##  7  2013     1     1
##  8  2013     1     1
##  9  2013     1     1
## 10  2013     1     1
## # … with 336,766 more rows

year 와 day 사이에 있는 모든 컬럼 조회 하기

select(flights, year:day)

## # A tibble: 336,776 x 3
##     year month   day
##    <int> <int> <int>
##  1  2013     1     1
##  2  2013     1     1
##  3  2013     1     1
##  4  2013     1     1
##  5  2013     1     1
##  6  2013     1     1
##  7  2013     1     1
##  8  2013     1     1
##  9  2013     1     1
## 10  2013     1     1
## # … with 336,766 more rows

7.3.6 year 와 day 사이에 있는 컬럼 제외

select(flights, -(year:day))

## # A tibble: 336,776 x 16
##    dep_time sched_dep_time dep_delay arr_time sched_arr_time arr_delay
##       <int>          <int>     <dbl>    <int>          <int>     <dbl>
##  1      517            515         2      830            819        11
##  2      533            529         4      850            830        20
##  3      542            540         2      923            850        33
##  4      544            545        -1     1004           1022       -18
##  5      554            600        -6      812            837       -25
##  6      554            558        -4      740            728        12
##  7      555            600        -5      913            854        19
##  8      557            600        -3      709            723       -14
##  9      557            600        -3      838            846        -8
## 10      558            600        -2      753            745         8
## # … with 336,766 more rows, and 10 more variables: carrier <chr>,
## #   flight <int>, tailnum <chr>, origin <chr>, dest <chr>, air_time <dbl>,
## #   distance <dbl>, hour <dbl>, minute <dbl>, time_hour <dttm>
…
contains(“ijk”)
“ijk”를 가지고 있는 패턴찾기

matches(“(.)\1”)
정규표현식과 일치하는 패턴찾기

num_range(“x”,1:3)
x1,x2,x3 에대한 패턴찾기

select( ) 함수컬럼 명을 변경하는데 사용 할수도 있지만, 명시하지 않은 컬럼은 제외 되기 때문에 rename( ) 함수를 사용해서 컬럼명을 변경 합니다.

flights

## # A tibble: 336,776 x 19
##     year month   day dep_time sched_dep_time dep_delay arr_time
##    <int> <int> <int>    <int>          <int>     <dbl>    <int>
##  1  2013     1     1      517            515         2      830
##  2  2013     1     1      533            529         4      850
##  3  2013     1     1      542            540         2      923
##  4  2013     1     1      544            545        -1     1004
##  5  2013     1     1      554            600        -6      812
##  6  2013     1     1      554            558        -4      740
##  7  2013     1     1      555            600        -5      913
##  8  2013     1     1      557            600        -3      709
##  9  2013     1     1      557            600        -3      838
## 10  2013     1     1      558            600        -2      753
## # … with 336,766 more rows, and 12 more variables: sched_arr_time <int>,
## #   arr_delay <dbl>, carrier <chr>, flight <int>, tailnum <chr>,
## #   origin <chr>, dest <chr>, air_time <dbl>, distance <dbl>, hour <dbl>,
## #   minute <dbl>, time_hour <dttm>

select(flights, tail_num = tailnum)

## # A tibble: 336,776 x 1
##    tail_num
##    <chr>   
##  1 N14228  
##  2 N24211  
##  3 N619AA  
##  4 N804JB  
##  5 N668DN  
##  6 N39463  
##  7 N516JB  
##  8 N829AS  
##  9 N593JB  
## 10 N3ALAA  
## # … with 336,766 more rows

rename( )을 사용해서 원하는 컬럼명을 변경합니다.

rename(flights, tail_num = tailnum, flight_distance = distance)

## # A tibble: 336,776 x 19
##     year month   day dep_time sched_dep_time dep_delay arr_time
##    <int> <int> <int>    <int>          <int>     <dbl>    <int>
##  1  2013     1     1      517            515         2      830
##  2  2013     1     1      533            529         4      850
##  3  2013     1     1      542            540         2      923
##  4  2013     1     1      544            545        -1     1004
##  5  2013     1     1      554            600        -6      812
##  6  2013     1     1      554            558        -4      740
##  7  2013     1     1      555            600        -5      913
##  8  2013     1     1      557            600        -3      709
##  9  2013     1     1      557            600        -3      838
## 10  2013     1     1      558            600        -2      753
## # … with 336,766 more rows, and 12 more variables: sched_arr_time <int>,
## #   arr_delay <dbl>, carrier <chr>, flight <int>, tail_num <chr>,
## #   origin <chr>, dest <chr>, air_time <dbl>, flight_distance <dbl>,
## #   hour <dbl>, minute <dbl>, time_hour <dttm>

Time 으로 끝나는 컬럼들만 조회 합니다.

flights %>% select(ends_with("Time"))

## # A tibble: 336,776 x 5
##    dep_time sched_dep_time arr_time sched_arr_time air_time
##       <int>          <int>    <int>          <int>    <dbl>
##  1      517            515      830            819      227
##  2      533            529      850            830      227
##  3      542            540      923            850      160
##  4      544            545     1004           1022      183
##  5      554            600      812            837      116
##  6      554            558      740            728      150
##  7      555            600      913            854      158
##  8      557            600      709            723       53
##  9      557            600      838            846      140
## 10      558            600      753            745      138
## # … with 336,766 more rows

필요한 것만 먼저 출력하되, 남은 컬럼을 자동으로 포함하여 출력

select(flights, origin, dest, everything())

## # A tibble: 336,776 x 19
##    origin dest   year month   day dep_time sched_dep_time dep_delay
##    <chr>  <chr> <int> <int> <int>    <int>          <int>     <dbl>
##  1 EWR    IAH    2013     1     1      517            515         2
##  2 LGA    IAH    2013     1     1      533            529         4
##  3 JFK    MIA    2013     1     1      542            540         2
##  4 JFK    BQN    2013     1     1      544            545        -1
##  5 LGA    ATL    2013     1     1      554            600        -6
##  6 EWR    ORD    2013     1     1      554            558        -4
##  7 EWR    FLL    2013     1     1      555            600        -5
##  8 LGA    IAD    2013     1     1      557            600        -3
##  9 JFK    MCO    2013     1     1      557            600        -3
## 10 LGA    ORD    2013     1     1      558            600        -2
## # … with 336,766 more rows, and 11 more variables: arr_time <int>,
## #   sched_arr_time <int>, arr_delay <dbl>, carrier <chr>, flight <int>,
## #   tailnum <chr>, air_time <dbl>, distance <dbl>, hour <dbl>,
## #   minute <dbl>, time_hour <dttm>

7.3.7 mutate 로 새로운 컬럼 생성

flights

## # A tibble: 336,776 x 19
##     year month   day dep_time sched_dep_time dep_delay arr_time
##    <int> <int> <int>    <int>          <int>     <dbl>    <int>
##  1  2013     1     1      517            515         2      830
##  2  2013     1     1      533            529         4      850
##  3  2013     1     1      542            540         2      923
##  4  2013     1     1      544            545        -1     1004
##  5  2013     1     1      554            600        -6      812
##  6  2013     1     1      554            558        -4      740
##  7  2013     1     1      555            600        -5      913
##  8  2013     1     1      557            600        -3      709
##  9  2013     1     1      557            600        -3      838
## 10  2013     1     1      558            600        -2      753
## # … with 336,766 more rows, and 12 more variables: sched_arr_time <int>,
## #   arr_delay <dbl>, carrier <chr>, flight <int>, tailnum <chr>,
## #   origin <chr>, dest <chr>, air_time <dbl>, distance <dbl>, hour <dbl>,
## #   minute <dbl>, time_hour <dttm>
…
