Chapter 6 Input and Output | BigData with R
…
## ── Conflicts ───────────────────────────────────── tidyverse_conflicts() ──
## ✖ dplyr::filter()  masks stats::filter()
## ✖ purrr::flatten() masks jsonlite::flatten()
## ✖ dplyr::lag()     masks stats::lag()

컬럼명들을 영문으로 변경 합니다.

colnames(apt) <- c("price", "build_year", "year", "road_name", "bon", "bu", "gungu", "serial", "gr_code",
                   "road_code", "bgd","bgd_bon", "bgd_bu","bgd_sigungu","bgd_emd", "bgd_gibun","apt_name", "month", "day", "serial2", "size", "gibun", "area_code", "floor")

아파트 가격에 ‘,’ 가 들어가 있어 연산이 불가능 합니다. ‘,’ 을 제거 하겠습니다.

as_tibble(apt)

## # A tibble: 100 x 24
##    price build_year  year road_name bon   bu    gungu serial gr_code
##    <chr>      <int> <int> <chr>     <chr> <chr> <int> <chr>    <int>
##  1 "   …       2008  2018 올림픽로  00099 00000 11710 01           0
##  2 "   …       1986  2018 올림픽로4길… 00015 00000 11710 01           0
##  3 "   …       1990  2018 백제고분로18길… 00007 00000 11710 01           0
##  4 "   …       2004  2018 백제고분로… 00188 00000 11710 01           0
##  5 "   …       2008  2018 올림픽로  00135 00000 11710 01           0
##  6 "   …       2008  2018 올림픽로  00099 00000 11710 01           0
##  7 "   …       2008  2018 올림픽로  00135 00000 11710 01           0
##  8 "   …       2007  2018 잠실로    00062 00000 11710 01           0
##  9 "   …       2005  2018 올림픽로  00212 00000 11710 01           0
## 10 "   …       2005  2018 올림픽로  00212 00000 11710 01           0
## # … with 90 more rows, and 15 more variables: road_code <int>, bgd <chr>,
## #   bgd_bon <chr>, bgd_bu <chr>, bgd_sigungu <int>, bgd_emd <int>,
## #   bgd_gibun <int>, apt_name <chr>, month <int>, day <int>,
## #   serial2 <chr>, size <dbl>, gibun <chr>, area_code <int>, floor <int>
…
by_apt_name <- group_by(apt, apt_name, build_year)
apt2 <- summarise(by_apt_name, mean_apt_price_by_size = mean(price_by_area, na.rm = TRUE))
apt2

## # A tibble: 52 x 3
## # Groups:   apt_name [48]
##    apt_name            build_year mean_apt_price_by_size
##    <chr>                    <int>                  <dbl>
##  1 2차한양아파트             1984                  4177.
##  2 sk파크타워                2003                  2523.
##  3 가락(1차)쌍용아파트       1997                  3508.
##  4 가락그랑밸리              2001                  2066.
##  5 가락금호아파트            1997                  3695.
##  6 가락삼익맨숀              1984                  2361.
##  7 가락스타클래스            2007                  2206.
##  8 가락쌍용(2차)             1999                  3555.
##  9 갤러리아팰리스            2005                  4034.
## 10 극동                      1984                  3729.
## # … with 42 more rows
…
by_apt_name <- group_by(aptList, bgd, apt_name)
aptListDealCount <- summarise(by_apt_name, deal_count =n())
aptListDealCount

## # A tibble: 329 x 3
## # Groups:   bgd [13]
##    bgd       apt_name                         deal_count
##    <chr>     <chr>                                 <int>
##  1 " 가락동" sk파크타워                               11
##  2 " 가락동" 가락(1차)쌍용아파트                     157
##  3 " 가락동" 가락3차쌍용스윗닷홈 101동, 102동          5
##  4 " 가락동" 가락3차쌍용스윗닷홈(103동)                3
##  5 " 가락동" 가락그랑밸리                              1
##  6 " 가락동" 가락금호아파트                           58
##  7 " 가락동" 가락미륭아파트                           20
##  8 " 가락동" 가락스타클래스                            5
##  9 " 가락동" 가락쌍용(2차)                            41
## 10 " 가락동" 가락우성2                                20
## # … with 319 more rows

aptListDealCount <- aptListDealCount %>% 
  mutate(address = paste(bgd,apt_name))

aptListDealCount

## # A tibble: 329 x 4
## # Groups:   bgd [13]
##    bgd      apt_name                deal_count address                     
##    <chr>    <chr>                        <int> <chr>                       
##  1 " 가락동"… sk파크타워                      11 " 가락동 sk파크타워"        
##  2 " 가락동"… 가락(1차)쌍용아파트            157 " 가락동 가락(1차)쌍용아파트"…
##  3 " 가락동"… 가락3차쌍용스윗닷홈 101동, 102동…          5 " 가락동 가락3차쌍용스윗닷홈 101동, 102동…
##  4 " 가락동"… 가락3차쌍용스윗닷홈(103동)…          3 " 가락동 가락3차쌍용스윗닷홈(103동)"…
##  5 " 가락동"… 가락그랑밸리                     1 " 가락동 가락그랑밸리"      
##  6 " 가락동"… 가락금호아파트                  58 " 가락동 가락금호아파트"    
##  7 " 가락동"… 가락미륭아파트                  20 " 가락동 가락미륭아파트"    
##  8 " 가락동"… 가락스타클래스                   5 " 가락동 가락스타클래스"    
##  9 " 가락동"… 가락쌍용(2차)                   41 " 가락동 가락쌍용(2차)"     
## 10 " 가락동"… 가락우성2                       20 " 가락동 가락우성2"         
## # … with 319 more rows
…
## Source : https://maps.googleapis.com/maps/api/geocode/json?address=%ED%92%8D%EB%82%A9%EB%8F%99+%ED%95%9C%EA%B0%95%EA%B7%B9%EB%8F%99+&language=ko&key=xxx-ti8UqdZ0WeduKjQt4lkFPpSU4

## Source : https://maps.googleapis.com/maps/api/geocode/json?address=%ED%92%8D%EB%82%A9%EB%8F%99+%ED%98%84%EB%8C%801+&language=ko&key=xxx-ti8UqdZ0WeduKjQt4lkFPpSU4

## " 풍납동 현대1 &languag..." not uniquely geocoded, using "대한민국 서울특별시 송파구 풍납동 260"

## Source : https://maps.googleapis.com/maps/api/geocode/json?address=%ED%92%8D%EB%82%A9%EB%8F%99+%ED%98%84%EB%8C%80%EB%A6%AC%EB%B2%84%EB%B9%8C1%EC%A7%80%EA%B5%AC+&language=ko&key=xxx-ti8UqdZ0WeduKjQt4lkFPpSU4

## Source : https://maps.googleapis.com/maps/api/geocode/json?address=%ED%92%8D%EB%82%A9%EB%8F%99+%ED%98%84%EB%8C%80%EB%A6%AC%EB%B2%84%EB%B9%8C2%EC%A7%80%EA%B5%AC+&language=ko&key=xxx-ti8UqdZ0WeduKjQt4lkFPpSU4

## " 풍납동 현대리버빌2지구 &la..." not uniquely geocoded, using "대한민국 서울특별시 송파구 풍납2동 풍성로24길 42"

aptListDealCount2

## # A tibble: 329 x 6
## # Groups:   bgd [13]
##    bgd     apt_name           deal_count address                  lon   lat
##    <chr>   <chr>                   <int> <chr>                  <dbl> <dbl>
##  1 " 가락동"… sk파크타워                 11 " 가락동 sk파크타워"    127.  37.5
##  2 " 가락동"… 가락(1차)쌍용아파트…        157 " 가락동 가락(1차)쌍용아파트"…  127.  37.5
##  3 " 가락동"… 가락3차쌍용스윗닷홈 101동, …          5 " 가락동 가락3차쌍용스윗닷홈 101동…  127.  37.5
##  4 " 가락동"… 가락3차쌍용스윗닷홈(103동)…          3 " 가락동 가락3차쌍용스윗닷홈(103동…  127.  37.5
##  5 " 가락동"… 가락그랑밸리                1 " 가락동 가락그랑밸리"  127.  37.5
##  6 " 가락동"… 가락금호아파트             58 " 가락동 가락금호아파트"…  127.  37.5
##  7 " 가락동"… 가락미륭아파트             20 " 가락동 가락미륭아파트"…  127.  37.5
##  8 " 가락동"… 가락스타클래스              5 " 가락동 가락스타클래스"…  127.  37.5
##  9 " 가락동"… 가락쌍용(2차)              41 " 가락동 가락쌍용(2차)"…  127.  37.5
## 10 " 가락동"… 가락우성2                  20 " 가락동 가락우성2"     127.  37.5
## # … with 319 more rows
