Chapter 11 Modeling | BigData with R
…
scale.computer.df <- computer  %>% 
  mutate(price_scal = scale(price),
         hd_scal = scale(hd),
         ram_scal = scale(ram),
         screen_scal = scale(screen),
         ads_scal = scale(ads),
         trend_scal = scale(trend))  %>% 
  select(-c(price, speed, hd, ram, screen, ads, trend)) # 정규화 한 다음 원래 값을 날립니다.

scale.computer.df

## # A tibble: 6,259 x 6
##    price_scal[,1] hd_scal[,1] ram_scal[,1] screen_scal[,1] ads_scal[,1]
##             <dbl>       <dbl>        <dbl>           <dbl>        <dbl>
##  1       -1.24         -1.30       -0.761           -0.673        -1.70
##  2       -0.731        -1.28       -1.12            -0.673        -1.70
##  3       -1.08         -0.954      -0.761            0.432        -1.70
##  4       -0.638        -0.954      -0.0510          -0.673        -1.70
##  5        1.85         -0.296       1.37            -0.673        -1.70
##  6        2.54         -0.296       1.37            -0.673        -1.70
##  7       -0.860        -0.954      -0.761           -0.673        -1.70
##  8       -0.387        -1.28       -1.12            -0.673        -1.70
##  9        0.00934      -0.799      -0.0510          -0.673        -1.70
## 10        0.612        -0.799      -0.761            0.432        -1.70
## # … with 6,249 more rows, and 1 more variable: trend_scal[,1] <dbl>
…
